% function evaluation | noise-free fitness - Fopt (-9.210000000000e+000) | best noise-free fitness - Fopt | measured fitness | best measured fitness | x1 | x2...
1 +8.260904637e+001 +8.260904637e+001 +7.339904637e+001 +7.339904637e+001 -3.3525e+000 +4.5895e+000 +4.1028e+000 +3.8485e+000 +1.4214e+000
5 +4.977181579e+001 +4.977181579e+001 +4.056181579e+001 +4.056181579e+001 +2.0206e+000 +1.9844e+000 -8.3897e-001 +2.9828e+000 -3.8378e+000
93 +4.483014019e+001 +4.483014019e+001 +3.562014019e+001 +3.562014019e+001 +7.2008e-003 +2.9736e+000 +3.5985e-001 +3.5729e+000 -3.6465e+000
120 +4.297617219e+001 +4.297617219e+001 +3.376617219e+001 +3.376617219e+001 -2.3359e+000 +4.7782e+000 +2.9893e+000 +4.2778e+000 -2.5174e+000
122 +3.291494912e+001 +3.291494912e+001 +2.370494912e+001 +2.370494912e+001 +1.6793e+000 +4.5876e+000 -8.4239e-001 +3.1532e+000 -5.5746e+000
152 +2.272082315e+001 +2.272082315e+001 +1.351082315e+001 +1.351082315e+001 +3.4166e+000 +2.8450e+000 -4.7240e-001 +5.1532e+000 -6.1908e+000
211 +2.220509013e+001 +2.220509013e+001 +1.299509013e+001 +1.299509013e+001 +1.7067e+000 +2.1778e+000 +6.0659e-001 +5.0881e+000 -7.0168e+000
246 +2.040321474e+001 +2.040321474e+001 +1.119321474e+001 +1.119321474e+001 -3.4952e+000 +2.0793e+000 +3.9070e+000 +4.4271e+000 -4.9964e+000
269 +1.994719053e+001 +1.994719053e+001 +1.073719053e+001 +1.073719053e+001 +2.0553e+000 +3.6862e+000 +3.6215e-001 +5.1404e+000 -7.7123e+000
276 +1.213250441e+001 +1.213250441e+001 +2.922504409e+000 +2.922504409e+000 -5.4952e+000 +4.0793e+000 +5.3513e+000 +5.5730e+000 -6.7940e+000
374 +1.032205191e+001 +1.032205191e+001 +1.112051912e+000 +1.112051912e+000 +8.6907e+000 +8.5950e+000 +1.7359e+000 +8.8705e+000 -5.6338e+000
386 +9.688347809e+000 +9.688347809e+000 +4.783478092e-001 +4.783478092e-001 +3.7685e+000 +5.0551e+000 +2.3257e+000 +5.6555e+000 -1.0114e+001
412 +8.391581592e+000 +8.391581592e+000 -8.184184083e-001 -8.184184083e-001 +4.2989e+000 +7.1336e+000 +2.5681e+000 +8.5044e+000 -7.4756e+000
416 +8.129144201e+000 +8.129144201e+000 -1.080855799e+000 -1.080855799e+000 +5.4650e+000 +3.0551e+000 +3.5230e+000 +7.6555e+000 -8.1141e+000
432 +6.603103349e+000 +6.603103349e+000 -2.606896651e+000 -2.606896651e+000 +9.8440e+000 +1.0566e+001 +2.9119e+000 +1.1456e+001 -5.3165e+000
462 +3.817877123e+000 +3.817877123e+000 -5.392122877e+000 -5.392122877e+000 +1.1182e+001 +1.0544e+001 +3.7927e+000 +1.0985e+001 -7.3165e+000
471 +3.370775821e+000 +3.370775821e+000 -5.839224179e+000 -5.839224179e+000 +5.4028e+000 +8.7317e+000 +3.9341e+000 +9.6631e+000 -7.4379e+000
491 +6.642956795e-001 +6.642956795e-001 -8.545704321e+000 -8.545704321e+000 +9.2302e+000 +9.8430e+000 +4.7899e+000 +1.1534e+001 -6.1224e+000
530 +4.465886061e-001 +4.465886061e-001 -8.763411394e+000 -8.763411394e+000 +6.5215e+000 +9.4466e+000 +4.8588e+000 +1.0786e+001 -9.0190e+000
550 +0.000000000e+000 +0.000000000e+000 -9.210000000e+000 -9.210000000e+000 +1.1045e+001 +1.2233e+001 +5.7498e+000 +1.2920e+001 -7.5072e+000
% function evaluation | noise-free fitness - Fopt (6.559900000000e+002) | best noise-free fitness - Fopt | measured fitness | best measured fitness | x1 | x2...
1 +8.688434414e+001 +8.688434414e+001 +7.428743441e+002 +7.428743441e+002 -1.2275e+000 +3.7202e+000 +1.2824e+000 +2.7688e-001 -3.1277e+000
2 +7.359023630e+001 +7.359023630e+001 +7.295802363e+002 +7.295802363e+002 +9.4204e-001 -3.5009e+000 -2.2914e+000 +4.2135e+000 +3.8785e-001
5 +6.815870336e+001 +6.815870336e+001 +7.241487034e+002 +7.241487034e+002 -4.6365e+000 +2.3642e+000 -4.6949e+000 -2.0895e+000 -4.5406e+000
17 +5.853596308e+001 +5.853596308e+001 +7.145259631e+002 +7.145259631e+002 +2.0935e+000 +1.4801e-002 -3.6440e-001 +4.5907e+000 -2.0249e+000
21 +3.263659226e+001 +3.263659226e+001 +6.886265923e+002 +6.886265923e+002 +3.4895e-001 -1.6396e+000 -2.0542e+000 +4.5126e+000 -4.0046e+000
164 +2.736452415e+001 +2.736452415e+001 +6.833545242e+002 +6.833545242e+002 -3.0313e-001 +1.1545e+000 -2.0814e+000 +5.0377e+000 -4.8112e+000
194 +2.039711995e+001 +2.039711995e+001 +6.763871199e+002 +6.763871199e+002 -6.5624e-001 -8.4555e-001 -4.0814e+000 +5.1920e+000 -4.5552e+000
227 +1.806455730e+001 +1.806455730e+001 +6.740545573e+002 +6.740545573e+002 +3.7091e+000 -2.7636e+000 -4.3980e+000 +3.0629e+000 -6.3819e+000
252 +1.391929871e+001 +1.391929871e+001 +6.699092987e+002 +6.699092987e+002 -9.4259e-001 -6.2989e-001 -5.7925e+000 +6.4109e+000 -4.9795e+000
370 +1.015754347e+001 +1.015754347e+001 +6.661475435e+002 +6.661475435e+002 -4.0269e-001 -3.6782e+000 -7.3105e+000 +8.8156e+000 -4.7596e+000
400 +9.906276537e+000 +9.906276537e+000 +6.658962765e+002 +6.658962765e+002 -2.4027e+000 -3.5921e+000 -5.8461e+000 +6.9441e+000 -6.1163e+000
459 +9.509054774e+000 +9.509054774e+000 +6.654990548e+002 +6.654990548e+002 -4.3456e+000 -4.9081e+000 -5.8060e+000 +6.4062e+000 -7.2454e+000
580 +4.527820082e+000 +4.527820082e+000 +6.605178201e+002 +6.605178201e+002 +2.5817e+000 -3.8137e+000 -5.5047e+000 +6.9254e+000 -5.4308e+000
639 +2.038067119e+000 +2.038067119e+000 +6.580280671e+002 +6.580280671e+002 +3.7445e+000 -4.5599e+000 -7.0589e+000 +7.3331e+000 -6.6662e+000
698 +1.868554253e+000 +1.868554253e+000 +6.578585543e+002 +6.578585543e+002 +3.5049e+000 -4.7900e+000 -6.0146e+000 +6.7316e+000 -6.9409e+000
728 +1.101034722e-002 +1.101034722e-002 +6.560010103e+002 +6.560010103e+002 +5.1275e+000 -6.1307e+000 -4.9965e+000 +5.3351e+000 -7.9774e+000
758 +0.000000000e+000 +0.000000000e+000 +6.559900000e+002 +6.559900000e+002 +5.1412e+000 -5.7941e+000 -5.6666e+000 +5.8057e+000 -7.5156e+000
% function evaluation | noise-free fitness - Fopt (6.671000000000e+001) | best noise-free fitness - Fopt | measured fitness | best measured fitness | x1 | x2...
1 +4.007282896e+001 +4.007282896e+001 +1.067828290e+002 +1.067828290e+002 -5.8190e-001 -2.9196e+000 -1.1111e+000 +1.8437e+000 -4.8092e+000
118 +2.609554418e+001 +2.609554418e+001 +9.280554418e+001 +9.280554418e+001 -1.7409e+000 -3.4225e+000 -3.2939e+000 +2.3973e+000 -5.2368e+000
148 +2.445275787e+001 +2.445275787e+001 +9.116275787e+001 +9.116275787e+001 +2.5912e-001 -2.7030e+000 -1.2939e+000 +4.3973e+000 -7.0085e+000
177 +1.904549880e+001 +1.904549880e+001 +8.575549880e+001 +8.575549880e+001 -1.2407e+000 -3.6225e+000 -2.9569e+000 +3.8662e+000 -5.2930e+000
294 +1.666276927e+001 +1.666276927e+001 +8.337276927e+001 +8.337276927e+001 -2.4025e+000 -4.2159e+000 -4.4370e+000 +3.0634e+000 -7.2002e+000
299 +1.201668092e+001 +1.201668092e+001 +7.872668092e+001 +7.872668092e+001 +2.4071e+000 -2.4078e+000 -6.8925e+000 +5.4956e+000 -5.0535e+000
382 +1.082769686e+001 +1.082769686e+001 +7.753769686e+001 +7.753769686e+001 -2.3467e+000 -7.1737e+000 -2.4150e+000 +5.4253e+000 -9.4834e+000
411 +9.956430693e+000 +9.956430693e+000 +7.666643069e+001 +7.666643069e+001 -3.6557e+000 -8.1655e+000 -2.5702e+000 +4.8349e+000 -9.4720e+000
440 +8.653313420e+000 +8.653313420e+000 +7.536331342e+001 +7.536331342e+001 -3.2137e+000 -7.0855e+000 -3.4669e+000 +4.6410e+000 -8.1556e+000
469 +5.711488377e+000 +5.711488377e+000 +7.242148838e+001 +7.242148838e+001 -3.2662e+000 -5.2053e+000 -3.8473e+000 +4.9409e+000 -8.0517e+000
591 +5.367673138e+000 +5.367673138e+000 +7.207767314e+001 +7.207767314e+001 -2.1292e+000 -5.7277e+000 -4.2777e+000 +4.9621e+000 -8.7018e+000
621 +4.870774886e+000 +4.870774886e+000 +7.158077489e+001 +7.158077489e+001 -1.2923e-001 -5.0650e+000 -6.0691e+000 +6.9621e+000 -8.7437e+000
647 +2.480585060e+000 +2.480585060e+000 +6.919058506e+001 +6.919058506e+001 -4.3916e+000 -6.7862e+000 -4.4080e+000 +5.1307e+000 -8.8213e+000
706 +7.687324224e-001 +7.687324224e-001 +6.747873242e+001 +6.747873242e+001 -4.8237e+000 -5.9170e+000 -4.8456e+000 +4.9815e+000 -7.0613e+000
735 +0.000000000e+000 +0.000000000e+000 +6.671000000e+001 +6.671000000e+001 -6.5557e+000 -6.7808e+000 -6.1863e+000 +5.1828e+000 -8.9113e+000
% function evaluation | noise-free fitness - Fopt (9.416700000000e+002) | best noise-free fitness - Fopt | measured fitness | best measured fitness | x1 | x2...
1 +7.879982555e+001 +7.879982555e+001 +1.020469826e+003 +1.020469826e+003 -3.8938e+000 -3.3450e+000 +6.7755e-001 -2.9153e+000 -3.3429e+000
2 +7.529373661e+001 +7.529373661e+001 +1.016963737e+003 +1.016963737e+003 -4.6545e+000 +2.3753e+000 +4.8716e+000 +8.4344e-001 -1.1947e+000
11 +7.311454632e+001 +7.311454632e+001 +1.014784546e+003 +1.014784546e+003 +4.2098e-001 -2.7716e+000 +2.1578e+000 -2.1722e-001 -2.4596e+000
17 +4.584687444e+001 +4.584687444e+001 +9.875168744e+002 +9.875168744e+002 +1.9455e+000 +3.1515e+000 +1.9339e+000 +4.1855e+000 -3.9870e+000
140 +3.633737639e+001 +3.633737639e+001 +9.780073764e+002 +9.780073764e+002 -2.9369e+000 +3.1227e+000 +2.8521e+000 +3.2443e+000 -4.6836e+000
165 +2.227427193e+001 +2.227427193e+001 +9.639442719e+002 +9.639442719e+002 +3.8762e+000 +5.7067e-001 +3.8958e+000 +5.5711e+000 -5.0625e+000
178 +1.995205831e+001 +1.995205831e+001 +9.616220583e+002 +9.616220583e+002 -4.6808e+000 -1.4774e+000 +4.5252e+000 +3.0550e+000 -4.9070e+000
195 +1.940107332e+001 +1.940107332e+001 +9.610710733e+002 +9.610710733e+002 +2.5914e+000 +4.7685e-002 +4.6263e+000 +4.7063e+000 -6.3508e+000
224 +1.573470703e+001 +1.573470703e+001 +9.574047070e+002 +9.574047070e+002 +3.9866e+000 -1.2053e+000 +5.7531e+000 +5.2550e+000 -5.6143e+000
297 +9.842509762e+000 +9.842509762e+000 +9.515125098e+002 +9.515125098e+002 -6.7425e+000 +5.3485e-001 +7.3293e+000 +5.4967e+000 -5.3367e+000
382 +5.292306124e+000 +5.292306124e+000 +9.469623061e+002 +9.469623061e+002 -7.0230e+000 -2.6134e+000 +6.6467e+000 +4.8136e+000 -9.6874e+000
383 +4.582186628e+000 +4.582186628e+000 +9.462521866e+002 +9.462521866e+002 -3.8778e+000 -4.8650e+000 +3.9818e+000 +5.2520e+000 -5.9644e+000
410 +4.357866958e+000 +4.357866958e+000 +9.460278670e+002 +9.460278670e+002 -7.7692e+000 -2.5494e+000 +5.5726e+000 +5.0295e+000 -1.0796e+001
412 +6.875586713e-001 +6.875586713e-001 +9.423575587e+002 +9.423575587e+002 -5.0230e+000 -4.6134e+000 +6.2852e+000 +6.7726e+000 -7.6874e+000
441 +0.000000000e+000 +0.000000000e+000 +9.416700000e+002 +9.416700000e+002 -5.3979e+000 -6.5808e+000 +6.8141e+000 +6.0156e+000 -8.3628e+000
% function evaluation | noise-free fitness - Fopt (-3.745000000000e+001) | best noise-free fitness - Fopt | measured fitness | best measured fitness | x1 | x2...
1 +1.030519961e+002 +1.030519961e+002 +6.560199609e+001 +6.560199609e+001 -4.4138e+000 -3.4474e+000 +5.1738e-001 -2.5660e+000 +7.5389e-002
2 +7.020317585e+001 +7.020317585e+001 +3.275317585e+001 +3.275317585e+001 +3.5943e+000 -1.4158e+000 +4.1320e+000 +4.1093e+000 -4.6582e+000
83 +5.124963294e+001 +5.124963294e+001 +1.379963294e+001 +1.379963294e+001 -4.3412e-002 -7.1368e-002 +1.4084e+000 -3.5798e+000 -3.2156e+000
113 +4.438253301e+001 +4.438253301e+001 +6.932533005e+000 +6.932533005e+000 -1.1662e+000 +5.4978e-002 +2.7384e+000 -1.5798e+000 -4.6962e+000
171 +2.964168327e+001 +2.964168327e+001 -7.808316727e+000 -7.808316727e+000 -2.1338e+000 -1.1183e+000 +3.6201e+000 -3.7082e+000 -5.4840e+000
258 +2.576519257e+001 +2.576519257e+001 -1.168480743e+001 -1.168480743e+001 -2.6351e+000 -7.5135e-001 +5.5629e+000 -3.5947e+000 -5.0545e+000
259 +2.352535130e+001 +2.352535130e+001 -1.392464870e+001 -1.392464870e+001 -3.6445e+000 +9.3949e-001 +4.3687e+000 -3.9928e+000 -6.5172e+000
288 +1.707944965e+001 +1.707944965e+001 -2.037055035e+001 -2.037055035e+001 -4.6351e+000 +1.2487e+000 +6.2662e+000 -4.8625e+000 -7.0545e+000
347 +1.609848041e+001 +1.609848041e+001 -2.135151959e+001 -2.135151959e+001 -6.0959e+000 +2.1869e+000 +7.1722e+000 -5.8144e+000 -8.5536e+000
413 +1.357276894e+001 +1.357276894e+001 -2.387723106e+001 -2.387723106e+001 -2.1541e+000 +2.3454e+000 +5.8226e+000 -4.6980e+000 -9.7444e+000
414 +1.329539823e+001 +1.329539823e+001 -2.415460177e+001 -2.415460177e+001 -2.6718e+000 +4.5073e+000 +3.4987e+000 -5.4525e+000 -6.3741e+000
442 +1.148266036e+001 +1.148266036e+001 -2.596733964e+001 -2.596733964e+001 -3.2342e+000 +3.1733e+000 +6.5733e+000 -5.3278e+000 -9.5276e+000
472 +1.087655662e+001 +1.087655662e+001 -2.657344338e+001 -2.657344338e+001 -4.5273e+000 +5.1733e+000 +4.5733e+000 -7.3278e+000 -7.5276e+000
485 +8.698330002e+000 +8.698330002e+000 -2.875167000e+001 -2.875167000e+001 -2.9363e+000 +4.5715e+000 +5.3757e+000 -5.0229e+000 -8.1860e+000
572 +7.882366029e+000 +7.882366029e+000 -2.956763397e+001 -2.956763397e+001 -2.8824e+000 +6.3942e+000 +8.6704e+000 -5.1596e+000 -9.9362e+000
676 +6.794374853e+000 +6.794374853e+000 -3.065562515e+001 -3.065562515e+001 -1.7944e+000 +8.6009e+000 +7.3932e+000 -5.9497e+000 -1.4021e+001
705 +5.654391539e+000 +5.654391539e+000 -3.179560846e+001 -3.179560846e+001 -6.5439e-001 +9.2806e+000 +7.7100e+000 -5.1191e+000 -1.4953e+001
764 +4.548027515e+000 +4.548027515e+000 -3.290197248e+001 -3.290197248e+001 +4.5197e-001 +1.0693e+001 +7.1760e+000 -5.3364e+000 -1.6231e+001
853 +3.258592226e+000 +3.258592226e+000 -3.419140777e+001 -3.419140777e+001 +1.7414e+000 +1.1652e+001 +5.6836e+000 -6.3360e+000 -1.6726e+001
882 +2.376852020e+000 +2.376852020e+000 -3.507314798e+001 -3.507314798e+001 +2.6231e+000 +1.2793e+001 +5.6425e+000 -5.8685e+000 -1.8333e+001
970 +6.437403726e-001 +6.437403726e-001 -3.680625963e+001 -3.680625963e+001 +4.3563e+000 +1.3248e+001 +5.6793e+000 -6.0542e+000 -1.9458e+001
1058 +3.678832759e-002 +3.678832759e-002 -3.741321167e+001 -3.741321167e+001 +4.9632e+000 +1.4064e+001 +5.1587e+000 -6.3691e+000 -2.0135e+001
1087 +0.000000000e+000 +0.000000000e+000 -3.745000000e+001 -3.745000000e+001 +5.4980e+000 +1.3792e+001 +6.0878e+000 -5.2550e+000 -1.8411e+001
% function evaluation | noise-free fitness - Fopt (2.134000000000e+001) | best noise-free fitness - Fopt | measured fitness | best measured fitness | x1 | x2...
1 +5.067824068e+001 +5.067824068e+001 +7.201824068e+001 +7.201824068e+001 +4.0917e+000 -4.8052e+000 +4.6006e-001 -4.0574e+000 -4.5507e+000
7 +2.686879354e+001 +2.686879354e+001 +4.820879354e+001 +4.820879354e+001 +3.6490e+000 +4.7281e+000 +3.2121e+000 -4.1423e+000 -4.2741e+000
126 +1.762368593e+001 +1.762368593e+001 +3.896368593e+001 +3.896368593e+001 +3.6292e+000 +5.0655e+000 +2.5135e+000 -4.7988e+000 -5.2806e+000
154 +1.361428386e+001 +1.361428386e+001 +3.495428386e+001 +3.495428386e+001 +2.8087e+000 +6.7069e+000 +3.1641e+000 -5.5957e+000 -6.0332e+000
212 +9.673106142e+000 +9.673106142e+000 +3.101310614e+001 +3.101310614e+001 +4.6731e+000 +5.0746e+000 +5.1993e+000 -5.0174e+000 -5.5007e+000
330 +9.470970254e+000 +9.470970254e+000 +3.081097025e+001 +3.081097025e+001 +4.4710e+000 +7.7134e+000 +6.6526e+000 -5.9994e+000 -6.9252e+000
389 +9.142619857e+000 +9.142619857e+000 +3.048261986e+001 +3.048261986e+001 +4.1426e+000 +7.4187e+000 +5.7210e+000 -6.6797e+000 -6.7381e+000
419 +7.644455389e+000 +7.644455389e+000 +2.898445539e+001 +2.898445539e+001 +2.6445e+000 +9.4187e+000 +5.0013e+000 -5.4523e+000 -6.5741e+000
460 +6.822356584e+000 +6.822356584e+000 +2.816235658e+001 +2.816235658e+001 -3.1512e+000 +3.2062e+000 +4.8097e+000 -4.7898e+000 -9.6614e+000
489 +5.647613490e+000 +5.647613490e+000 +2.698761349e+001 +2.698761349e+001 -1.2184e+000 +5.0140e+000 +5.2835e+000 -4.6682e+000 -1.1524e+001
547 +4.311611684e+000 +4.311611684e+000 +2.565161168e+001 +2.565161168e+001 -6.8839e-001 +6.3147e+000 +6.0363e+000 -6.1567e+000 -1.1733e+001
576 +3.526499980e+000 +3.526499980e+000 +2.486649998e+001 +2.486649998e+001 -1.4735e+000 +6.3474e+000 +5.6527e+000 -6.0252e+000 -1.0428e+001
662 +3.078441373e+000 +3.078441373e+000 +2.441844137e+001 +2.441844137e+001 -2.9550e+000 +4.4189e+000 +6.6674e+000 -6.0627e+000 -8.7172e+000
691 +2.872363636e+000 +2.872363636e+000 +2.421236364e+001 +2.421236364e+001 -4.1967e+000 +3.8365e+000 +6.6336e+000 -5.8714e+000 -1.0965e+001
720 +2.799335220e+000 +2.799335220e+000 +2.413933522e+001 +2.413933522e+001 -5.2744e+000 +3.4258e+000 +8.4962e+000 -5.9283e+000 -8.2534e+000
721 +2.300257228e+000 +2.300257228e+000 +2.364025723e+001 +2.364025723e+001 -2.6997e+000 +5.8365e+000 +7.4062e+000 -5.7375e+000 -1.0986e+001
750 +1.758345417e-001 +1.758345417e-001 +2.151583454e+001 +2.151583454e+001 -4.8242e+000 +5.4258e+000 +8.0382e+000 -6.2871e+000 -1.0253e+001
923 +0.000000000e+000 +0.000000000e+000 +2.134000000e+001 +2.134000000e+001 -5.0765e+000 +6.8848e+000 +7.3145e+000 -7.9993e+000 -8.2616e+000
% function evaluation | noise-free fitness - Fopt (2.284000000000e+001) | best noise-free fitness - Fopt | measured fitness | best measured fitness | x1 | x2...
1 +1.342752654e+002 +1.342752654e+002 +1.571152654e+002 +1.571152654e+002 -2.4813e+000 -3.1034e+000 +4.8118e+000 -1.3750e+000 +4.6367e+000
2 +9.170497722e+001 +9.170497722e+001 +1.145449772e+002 +1.145449772e+002 +4.7998e+000 +3.5591e+000 +2.1314e+000 +4.1979e+000 -3.1452e+000
3 +2.651192570e+001 +2.651192570e+001 +4.935192570e+001 +4.935192570e+001 +6.9913e-001 +7.6069e-001 +4.1250e+000 -4.2057e+000 -4.3960e+000
151 +1.370957987e+001 +1.370957987e+001 +3.654957987e+001 +3.654957987e+001 +8.4993e-001 +8.0045e-001 +5.3675e+000 -4.9303e+000 -5.1266e+000
239 +1.339413455e+001 +1.339413455e+001 +3.623413455e+001 +3.623413455e+001 +5.6179e-001 +6.5364e-001 +7.0166e+000 -4.9816e+000 -7.9679e+000
297 +1.124885769e+001 +1.124885769e+001 +3.408885769e+001 +3.408885769e+001 +4.8370e-001 +2.4208e+000 +8.6076e+000 -4.7904e+000 -9.1797e+000
355 +9.306474910e+000 +9.306474910e+000 +3.214647491e+001 +3.214647491e+001 +1.9696e-001 +4.1766e+000 +7.2445e+000 -4.5296e+000 -1.0757e+001
385 +8.276526614e+000 +8.276526614e+000 +3.111652661e+001 +3.111652661e+001 -1.7443e+000 +2.1766e+000 +9.2445e+000 -6.5296e+000 -1.1727e+001
443 +6.374810520e+000 +6.374810520e+000 +2.921481052e+001 +2.921481052e+001 -6.1011e-001 +3.8838e+000 +1.0213e+001 -5.1421e+000 -1.2266e+001
502 +4.304884537e+000 +4.304884537e+000 +2.714488454e+001 +2.714488454e+001 -1.1216e+000 +4.7602e+000 +1.1740e+001 -6.5791e+000 -1.2390e+001
531 +3.911143030e+000 +3.911143030e+000 +2.675114303e+001 +2.675114303e+001 -1.0889e+000 +6.5092e+000 +1.3048e+001 -6.1976e+000 -1.3403e+001
532 +2.585788524e+000 +2.585788524e+000 +2.542578852e+001 +2.542578852e+001 -3.1216e+000 +4.6022e+000 +9.7405e+000 -7.8939e+000 -1.3608e+001
561 +1.911143030e+000 +1.911143030e+000 +2.475114303e+001 +2.475114303e+001 -3.0889e+000 +6.0614e+000 +1.2065e+001 -8.1976e+000 -1.4836e+001
620 +1.137078105e-001 +1.137078105e-001 +2.295370781e+001 +2.295370781e+001 -4.8863e+000 +7.3399e+000 +1.3366e+001 -9.9473e+000 -1.4720e+001
650 +3.058964165e-002 +3.058964165e-002 +2.287058964e+001 +2.287058964e+001 -4.9694e+000 +7.4213e+000 +1.1408e+001 -9.8441e+000 -1.6147e+001
679 +0.000000000e+000 +0.000000000e+000 +2.284000000e+001 +2.284000000e+001 -5.8888e+000 +8.5689e+000 +1.2550e+001 -1.0894e+001 -1.5404e+001
% function evaluation | noise-free fitness - Fopt (-1.038100000000e+002) | best noise-free fitness - Fopt | measured fitness | best measured fitness | x1 | x2...
1 +8.846984357e+001 +8.846984357e+001 -1.534015643e+001 -1.534015643e+001 -1.6086e+000 -3.5878e+000 -4.6962e+000 +3.1223e+000 -5.0701e-001
3 +8.460342446e+001 +8.460342446e+001 -1.920657554e+001 -1.920657554e+001 +1.0402e+000 -1.0479e+000 -1.2882e+000 +6.7514e-002 +1.9587e+000
6 +6.955705022e+001 +6.955705022e+001 -3.425294978e+001 -3.425294978e+001 -9.5324e-001 +2.2507e+000 -1.6026e+000 +3.8790e+000 +8.3330e-001
11 +4.281057044e+001 +4.281057044e+001 -6.099942956e+001 -6.099942956e+001 +3.6379e+000 +1.5865e+000 -4.3252e+000 +1.8566e+000 +3.4432e+000
130 +2.380141366e+001 +2.380141366e+001 -8.000858634e+001 -8.000858634e+001 +3.8963e+000 +9.9560e-001 -4.1957e+000 +2.8203e+000 +4.9224e+000
160 +2.205062457e+001 +2.205062457e+001 -8.175937543e+001 -8.175937543e+001 +4.8776e+000 -7.2346e-001 -5.4223e+000 +4.7292e+000 +3.9773e+000
189 +1.898821754e+001 +1.898821754e+001 -8.482178246e+001 -8.482178246e+001 +5.0746e+000 +3.1850e+000 -5.9064e+000 +3.6796e+000 +4.1664e+000
247 +1.534427696e+001 +1.534427696e+001 -8.846572304e+001 -8.846572304e+001 +6.1792e+000 +4.6249e+000 -7.2055e+000 +2.3900e+000 +6.4892e+000
272 +1.480113718e+001 +1.480113718e+001 -8.900886282e+001 -8.900886282e+001 +6.0202e+000 -1.1316e+000 -6.5599e+000 +4.3069e+000 +5.5620e+000
277 +1.138433306e+001 +1.138433306e+001 -9.242566694e+001 -9.242566694e+001 +7.5908e+000 +3.3997e+000 -7.4872e+000 +4.3900e+000 +4.4892e+000
301 +4.944579624e+000 +4.944579624e+000 -9.886542038e+001 -9.886542038e+001 +4.9214e+000 +2.2637e+000 -6.8166e+000 +6.1984e+000 +5.1844e+000
389 +1.977086127e+000 +1.977086127e+000 -1.018329139e+002 -1.018329139e+002 +5.3770e+000 +3.8882e+000 -7.1601e+000 +6.2337e+000 +5.9948e+000
477 +0.000000000e+000 +0.000000000e+000 -1.038100000e+002 -1.038100000e+002 +5.0645e+000 +5.4526e+000 -6.7337e+000 +5.9148e+000 +6.2430e+000
% function evaluation | noise-free fitness - Fopt (1.237000000000e+001) | best noise-free fitness - Fopt | measured fitness | best measured fitness | x1 | x2...
1 +7.560767649e+001 +7.560767649e+001 +8.797767649e+001 +8.797767649e+001 -2.3640e+000 -1.8340e+000 -4.0263e+000 +4.3800e+000 -1.9416e+000
4 +4.983173183e+001 +4.983173183e+001 +6.220173183e+001 +6.220173183e+001 +2.3370e+000 -2.4617e+000 -1.5518e+000 +1.4821e+000 -4.7846e+000
123 +4.369598999e+001 +4.369598999e+001 +5.606598999e+001 +5.606598999e+001 +4.3117e+000 -2.7557e+000 -2.7887e+000 +2.4416e+000 -5.3903e+000
152 +4.123791716e+001 +4.123791716e+001 +5.360791716e+001 +5.360791716e+001 +4.6884e+000 -2.9696e+000 -3.8808e+000 +3.3583e+000 -6.8037e+000
153 +3.844757301e+001 +3.844757301e+001 +5.081757301e+001 +5.081757301e+001 +4.5908e+000 -1.6466e+000 -7.8868e-001 +2.5513e+000 -5.5363e+000
160 +3.208346315e+001 +3.208346315e+001 +4.445346315e+001 +4.445346315e+001 -6.6980e+000 -6.0863e+000 +1.8317e+000 +4.8822e+000 -4.0296e+000
189 +1.842317556e+001 +1.842317556e+001 +3.079317556e+001 +3.079317556e+001 -5.2105e+000 -7.3268e+000 +2.5269e+000 +4.9303e+000 -5.7527e+000
219 +1.678326481e+001 +1.678326481e+001 +2.915326481e+001 +2.915326481e+001 -7.2105e+000 -7.3999e+000 +3.6198e+000 +4.9630e+000 -5.6798e+000
337 +1.258186359e+001 +1.258186359e+001 +2.495186359e+001 +2.495186359e+001 -7.5819e+000 -7.6253e+000 +5.6519e+000 +6.0355e+000 -6.1890e+000
480 +1.224170957e+001 +1.224170957e+001 +2.461170957e+001 +2.461170957e+001 -4.3061e+000 -8.7234e+000 +4.0717e+000 +6.6526e+000 -1.2104e+001
510 +1.130605741e+001 +1.130605741e+001 +2.367605741e+001 +2.367605741e+001 -6.3061e+000 -1.0723e+001 +6.0717e+000 +5.5346e+000 -1.1546e+001
538 +1.035126452e+001 +1.035126452e+001 +2.272126452e+001 +2.272126452e+001 -2.1781e+000 -1.0913e+001 +3.9966e+000 +6.8096e+000 -1.3647e+001
565 +8.353186695e+000 +8.353186695e+000 +2.072318669e+001 +2.072318669e+001 +8.9767e+000 -4.0586e+000 +2.8879e+000 +6.2880e+000 -5.4741e+000
567 +7.746871937e+000 +7.746871937e+000 +2.011687194e+001 +2.011687194e+001 +2.5663e+000 -1.0464e+001 +3.3198e+000 +8.8151e+000 -1.1763e+001
594 +6.519968384e+000 +6.519968384e+000 +1.888996838e+001 +1.888996838e+001 +7.8730e+000 -4.3338e+000 +3.3128e+000 +5.7933e+000 -5.7357e+000
596 +3.049915124e+000 +3.049915124e+000 +1.541991512e+001 +1.541991512e+001 +4.1353e+000 -1.0024e+001 +4.3090e+000 +8.3810e+000 -1.0502e+001
624 +1.070184373e+000 +1.070184373e+000 +1.344018437e+001 +1.344018437e+001 +5.8730e+000 -6.3338e+000 +4.6616e+000 +7.7933e+000 -7.7357e+000
653 +0.000000000e+000 +0.000000000e+000 +1.237000000e+001 +1.237000000e+001 +6.4060e+000 -5.4539e+000 +6.1673e+000 +7.0216e+000 -6.7043e+000
% function evaluation | noise-free fitness - Fopt (6.580000000000e+000) | best noise-free fitness - Fopt | measured fitness | best measured fitness | x1 | x2...
1 +9.683499643e+001 +9.683499643e+001 +1.034149964e+002 +1.034149964e+002 +2.0999e+000 +5.4900e-002 +1.3678e+000 -4.4154e+000 +3.3687e+000
2 +9.002310022e+001 +9.002310022e+001 +9.660310022e+001 +9.660310022e+001 +3.4841e+000 -1.6555e+000 -4.2243e-001 -3.5571e-001 +2.1673e+000
7 +3.901952215e+001 +3.901952215e+001 +4.559952215e+001 +4.559952215e+001 -1.1783e-001 -3.3111e+000 +2.1349e+000 +2.8124e+000 +4.0228e+000
23 +3.668088042e+001 +3.668088042e+001 +4.326088042e+001 +4.326088042e+001 +3.9131e+000 -4.7317e+000 +1.1261e+000 +3.9998e+000 +4.0584e+000
125 +1.345212716e+001 +1.345212716e+001 +2.003212716e+001 +2.003212716e+001 +1.5423e+000 -4.9868e+000 +3.1717e+000 +4.8035e+000 +5.2196e+000
184 +1.204446049e+001 +1.204446049e+001 +1.862446049e+001 +1.862446049e+001 +2.1863e+000 -5.1493e+000 +3.8027e+000 +6.1520e+000 +4.8928e+000
243 +9.319430767e+000 +9.319430767e+000 +1.589943077e+001 +1.589943077e+001 +3.3398e+000 -6.4030e+000 +4.6902e+000 +6.2440e+000 +6.9657e+000
272 +9.070874729e+000 +9.070874729e+000 +1.565087473e+001 +1.565087473e+001 +4.0709e+000 -6.2803e+000 +5.4295e+000 +6.3413e+000 +6.3025e+000
273 +8.122177151e+000 +8.122177151e+000 +1.470217715e+001 +1.470217715e+001 +2.7017e+000 -4.7635e+000 +5.4447e+000 +5.4478e+000 +6.1405e+000
330 +7.237545202e+000 +7.237545202e+000 +1.381754520e+001 +1.381754520e+001 +1.3159e+000 -8.7311e+000 +4.7086e+000 +8.6602e+000 +6.3216e+000
626 +6.855946648e+000 +6.855946648e+000 +1.343594665e+001 +1.343594665e+001 +1.8559e+000 -5.5633e+000 +6.1117e+000 +8.3094e+000 +5.2224e+000
669 +6.633842161e+000 +6.633842161e+000 +1.321384216e+001 +1.321384216e+001 +1.6338e+000 -6.7329e+000 +5.1025e+000 +6.7961e+000 +5.9142e+000
698 +6.268567332e+000 +6.268567332e+000 +1.284856733e+001 +1.284856733e+001 +1.2686e+000 -6.6190e+000 +5.5421e+000 +5.9964e+000 +6.2692e+000
715 +4.565733532e+000 +4.565733532e+000 +1.114573353e+001 +1.114573353e+001 -4.3427e-001 -7.4063e+000 +5.0967e+000 +9.8399e+000 +5.3527e+000
862 +2.944022273e+000 +2.944022273e+000 +9.524022273e+000 +9.524022273e+000 -2.0560e+000 -5.7905e+000 +6.3726e+000 +1.0571e+001 +5.2958e+000
950 +2.757764198e+000 +2.757764198e+000 +9.337764198e+000 +9.337764198e+000 -2.2422e+000 -7.6585e+000 +5.6260e+000 +1.0552e+001 +6.7550e+000
978 +2.504226702e+000 +2.504226702e+000 +9.084226702e+000 +9.084226702e+000 -2.4958e+000 -5.6512e+000 +6.5654e+000 +1.0491e+001 +8.0722e+000
1008 +1.372949203e+000 +1.372949203e+000 +7.952949203e+000 +7.952949203e+000 -3.8188e+000 -7.6512e+000 +4.9394e+000 +1.2491e+001 +7.8574e+000
1009 +1.317502344e+000 +1.317502344e+000 +7.897502344e+000 +7.897502344e+000 -3.6825e+000 -8.1953e+000 +5.6351e+000 +1.1955e+001 +7.1206e+000
1067 +0.000000000e+000 +0.000000000e+000 +6.580000000e+000 +6.580000000e+000 -5.3758e+000 -9.0449e+000 +5.3528e+000 +1.2556e+001 +7.3475e+000
% function evaluation | noise-free fitness - Fopt (5.178000000000e+001) | best noise-free fitness - Fopt | measured fitness | best measured fitness | x1 | x2...
1 +1.144398592e+002 +1.144398592e+002 +1.662198592e+002 +1.662198592e+002 -1.1154e+000 +2.7859e+000 -3.9617e+000 -2.8534e+000 +2.8023e+000
7 +6.933473350e+001 +6.933473350e+001 +1.211147335e+002 +1.211147335e+002 +2.4019e-001 -7.1559e-001 +1.2707e+000 +1.0757e+000 +2.6905e+000
11 +3.999778827e+001 +3.999778827e+001 +9.177778827e+001 +9.177778827e+001 -2.7049e+000 -6.3985e-001 +2.4765e+000 +3.0812e+000 +4.4231e+000
113 +3.691291533e+001 +3.691291533e+001 +8.869291533e+001 +8.869291533e+001 +1.5012e+000 -2.4526e+000 +1.5736e+000 +3.1372e+000 +4.2427e+000
142 +2.497480399e+001 +2.497480399e+001 +7.675480399e+001 +7.675480399e+001 +2.0296e+000 -3.0638e+000 +2.5861e-001 +4.5150e+000 +4.9160e+000
171 +2.283990941e+001 +2.283990941e+001 +7.461990941e+001 +7.461990941e+001 +2.9332e+000 -4.8670e+000 +1.9661e+000 +4.4938e+000 +4.1904e+000
172 +2.040117439e+001 +2.040117439e+001 +7.218117439e+001 +7.218117439e+001 +2.6575e+000 -4.0710e+000 +1.9746e+000 +3.7837e+000 +5.7204e+000
201 +1.609781054e+001 +1.609781054e+001 +6.787781054e+001 +6.787781054e+001 +2.0987e+000 -4.6992e+000 +9.9603e-001 +5.4465e+000 +6.1904e+000
230 +1.542930748e+001 +1.542930748e+001 +6.720930748e+001 +6.720930748e+001 +1.7701e+000 -5.7390e+000 +1.5797e+000 +4.7540e+000 +5.2831e+000
259 +1.265434516e+001 +1.265434516e+001 +6.443434516e+001 +6.443434516e+001 +3.6164e+000 -5.5821e+000 +3.0309e+000 +4.4980e+000 +4.7779e+000
318 +1.183734236e+001 +1.183734236e+001 +6.361734236e+001 +6.361734236e+001 +1.5624e+000 -7.2018e+000 +2.3438e+000 +5.0292e+000 +6.5663e+000
347 +8.541399584e+000 +8.541399584e+000 +6.032139958e+001 +6.032139958e+001 +3.8955e+000 -6.8501e+000 +2.6483e+000 +5.0353e+000 +6.5492e+000
376 +8.260599361e+000 +8.260599361e+000 +6.004059936e+001 +6.004059936e+001 +5.1041e+000 -6.2932e+000 +2.3878e+000 +6.2937e+000 +5.5351e+000
522 +7.537552924e+000 +7.537552924e+000 +5.931755292e+001 +5.931755292e+001 +3.0993e+000 -4.8487e+000 +3.3026e+000 +6.2627e+000 +8.9759e+000
551 +2.840390934e+000 +2.840390934e+000 +5.462039093e+001 +5.462039093e+001 +2.1596e+000 -5.5132e+000 +5.4232e+000 +7.7741e+000 +1.0023e+001
579 +2.350353119e+000 +2.350353119e+000 +5.413035312e+001 +5.413035312e+001 +3.1894e+000 -4.6965e+000 +5.4078e+000 +7.5414e+000 +1.0229e+001
581 +1.222482590e+000 +1.222482590e+000 +5.300248259e+001 +5.300248259e+001 +3.7775e+000 -5.3153e+000 +5.8404e+000 +8.6133e+000 +8.7055e+000
609 +4.550321870e-002 +4.550321870e-002 +5.182550322e+001 +5.182550322e+001 +4.9545e+000 -6.6965e+000 +7.4078e+000 +9.3025e+000 +1.0945e+001
638 +0.000000000e+000 +0.000000000e+000 +5.178000000e+001 +5.178000000e+001 +5.5631e+000 -5.3169e+000 +8.2518e+000 +7.7764e+000 +1.1789e+001
% function evaluation | noise-free fitness - Fopt (-3.760300000000e+002) | best noise-free fitness - Fopt | measured fitness | best measured fitness | x1 | x2...
1 +7.136426469e+001 +7.136426469e+001 -3.046657353e+002 -3.046657353e+002 -1.8809e+000 +2.7557e+000 +1.2543e+000 -7.7210e-001 -3.7982e+000
7 +3.583550407e+001 +3.583550407e+001 -3.401944959e+002 -3.401944959e+002 +4.6153e-001 +4.5955e+000 -4.7300e+000 +4.2255e+000 -2.5554e+000
95 +3.227906476e+001 +3.227906476e+001 -3.437509352e+002 -3.437509352e+002 -2.1815e+000 +3.8628e+000 -3.2370e+000 +4.0938e+000 -3.3232e+000
125 +1.061013561e+001 +1.061013561e+001 -3.654198644e+002 -3.654198644e+002 -4.1136e-001 +5.1458e+000 -5.2370e+000 +4.8716e+000 -4.4701e+000
155 +6.588635385e+000 +6.588635385e+000 -3.694413646e+002 -3.694413646e+002 +1.5886e+000 +5.6719e+000 -7.0743e+000 +5.4769e+000 -5.0632e+000
264 +2.641600580e+000 +2.641600580e+000 -3.733883994e+002 -3.733883994e+002 -3.3610e+000 +7.3541e+000 -4.9732e+000 +4.8368e+000 -6.2624e+000
293 +7.507331310e-001 +7.507331310e-001 -3.752792669e+002 -3.752792669e+002 -4.2493e+000 +7.1778e+000 -5.7602e+000 +5.6380e+000 -7.9398e+000
352 +0.000000000e+000 +0.000000000e+000 -3.760300000e+002 -3.760300000e+002 -5.4260e+000 +9.1209e+000 -7.3503e+000 +7.2305e+000 -9.0461e+000
% function evaluation | noise-free fitness - Fopt (-7.182000000000e+001) | best noise-free fitness - Fopt | measured fitness | best measured fitness | x1 | x2...
1 +1.274098965e+002 +1.274098965e+002 +5.558989654e+001 +5.558989654e+001 +1.0231e+000 +1.0518e+000 +4.4093e+000 +2.7732e+000 +1.8348e+000
2 +7.128805589e+001 +7.128805589e+001 -5.319441101e-001 -5.319441101e-001 -4.4251e+000 -4.6435e+000 -4.8845e+000 +4.5434e+000 +1.7146e+000
9 +6.001914970e+001 +6.001914970e+001 -1.180085030e+001 -1.180085030e+001 -1.5614e+000 -8.7538e-001 +4.6152e+000 +2.7448e+000 -4.3842e+000
20 +5.518861480e+001 +5.518861480e+001 -1.663138520e+001 -1.663138520e+001 -1.4295e+000 -1.0791e+000 -2.6801e+000 +3.9483e+000 -1.8605e+000
25 +3.453950085e+001 +3.453950085e+001 -3.728049915e+001 -3.728049915e+001 -7.0125e-001 +1.6554e-001 -1.8712e-001 +4.6862e+000 -4.5929e+000
143 +2.187904020e+001 +2.187904020e+001 -4.994095980e+001 -4.994095980e+001 +3.0119e-001 -1.5287e+000 -3.0610e+000 +7.4436e+000 -4.5727e+000
171 +1.886145920e+001 +1.886145920e+001 -5.295854080e+001 -5.295854080e+001 -1.2523e-001 -3.2083e+000 -1.5846e+000 +7.0805e+000 -5.1927e+000
172 +1.697571501e+001 +1.697571501e+001 -5.484428499e+001 -5.484428499e+001 +2.3494e+000 -3.1433e+000 -4.2492e+000 +7.0473e+000 -4.6050e+000
199 +1.452892027e+001 +1.452892027e+001 -5.729107973e+001 -5.729107973e+001 -2.4818e+000 -2.8338e+000 -2.4200e+000 +6.0964e+000 -5.0357e+000
201 +1.380900769e+001 +1.380900769e+001 -5.801099231e+001 -5.801099231e+001 +1.8748e+000 -3.6176e+000 -3.5846e+000 +9.0805e+000 -6.4434e+000
202 +1.273142719e+001 +1.273142719e+001 -5.908857281e+001 -5.908857281e+001 +1.8366e+000 -3.2253e+000 -4.1339e+000 +8.4926e+000 -6.2506e+000
231 +1.190530460e+001 +1.190530460e+001 -5.991469540e+001 -5.991469540e+001 +2.7764e+000 -2.6781e+000 -5.2752e+000 +9.7611e+000 -6.4513e+000
257 +7.903118833e+000 +7.903118833e+000 -6.391688117e+001 -6.391688117e+001 -3.6299e+000 -5.0538e+000 -3.3135e+000 +5.0360e+000 -4.8800e+000
287 +4.424552737e+000 +4.424552737e+000 -6.739544726e+001 -6.739544726e+001 -1.6299e+000 -4.4070e+000 -5.3135e+000 +7.0360e+000 -5.6458e+000
346 +4.106139805e+000 +4.106139805e+000 -6.771386019e+001 -6.771386019e+001 -8.9386e-001 -5.7414e+000 -6.0313e+000 +7.7786e+000 -7.7761e+000
375 +3.140796776e+000 +3.140796776e+000 -6.867920322e+001 -6.867920322e+001 -1.8592e+000 -6.7558e+000 -5.2553e+000 +6.4717e+000 -5.6477e+000
382 +2.752740217e+000 +2.752740217e+000 -6.906725978e+001 -6.906725978e+001 -3.1207e+000 -5.0410e+000 -4.7238e+000 +5.9882e+000 -6.1956e+000
524 +2.585556342e+000 +2.585556342e+000 -6.923444366e+001 -6.923444366e+001 -2.4144e+000 -5.0673e+000 -5.4937e+000 +6.5824e+000 -6.9045e+000
559 +2.106857188e+000 +2.106857188e+000 -6.971314281e+001 -6.971314281e+001 -4.7787e+000 -4.1113e+000 -4.9035e+000 +5.6416e+000 -6.1585e+000
610 +2.058793614e+000 +2.058793614e+000 -6.976120639e+001 -6.976120639e+001 -3.2093e+000 -7.6716e+000 -6.2419e+000 +7.8322e+000 -4.9732e+000
640 +2.032226488e+000 +2.032226488e+000 -6.978777351e+001 -6.978777351e+001 -2.9678e+000 -7.5002e+000 -5.4925e+000 +8.7348e+000 -6.9732e+000
671 +1.534652863e+000 +1.534652863e+000 -7.028534714e+001 -7.028534714e+001 -3.7124e+000 -4.9925e+000 -6.0991e+000 +4.9585e+000 -6.4706e+000
699 +1.315243752e+000 +1.315243752e+000 -7.050475625e+001 -7.050475625e+001 -3.6848e+000 -6.8036e+000 -5.6997e+000 +7.3024e+000 -7.3305e+000
728 +3.359219184e-001 +3.359219184e-001 -7.148407808e+001 -7.148407808e+001 -4.6641e+000 -8.3844e+000 -5.2191e+000 +9.4221e+000 -7.4188e+000
739 +1.603529628e-001 +1.603529628e-001 -7.165964704e+001 -7.165964704e+001 -4.8396e+000 -5.8668e+000 -5.7297e+000 +5.9459e+000 -6.8785e+000
758 +0.000000000e+000 +0.000000000e+000 -7.182000000e+001 -7.182000000e+001 -6.0907e+000 -6.3844e+000 -6.1376e+000 +8.9878e+000 -9.4188e+000
% function evaluation | noise-free fitness - Fopt (1.606400000000e+002) | best noise-free fitness - Fopt | measured fitness | best measured fitness | x1 | x2...
1 +1.540604405e+002 +1.540604405e+002 +3.147004405e+002 +3.147004405e+002 -5.1913e-003 -4.4356e+000 +2.9080e+000 +1.1159e+000 +3.5427e+000
3 +1.108025871e+002 +1.108025871e+002 +2.714425871e+002 +2.714425871e+002 +4.3396e+000 +4.1633e+000 +4.9014e+000 +4.4056e+000 +2.4001e+000
5 +8.996796145e+001 +8.996796145e+001 +2.506079615e+002 +2.506079615e+002 +2.2141e+000 -1.1180e+000 -5.7425e-001 -1.4003e+000 -2.3684e+000
6 +7.226705198e+001 +7.226705198e+001 +2.329070520e+002 +2.329070520e+002 -1.6486e+000 +4.9136e+000 -3.4417e+000 +2.8174e+000 -1.7368e-001
8 +2.307483184e+001 +2.307483184e+001 +1.837148318e+002 +1.837148318e+002 +4.0812e+000 +3.8379e+000 -3.7835e+000 +3.7460e+000 -4.0809e+000
96 +1.955107169e+001 +1.955107169e+001 +1.801910717e+002 +1.801910717e+002 +2.9661e+000 +3.3021e+000 -3.2399e+000 +3.7882e+000 -4.7882e+000
126 +1.380886408e+001 +1.380886408e+001 +1.744488641e+002 +1.744488641e+002 +9.6611e-001 +5.3021e+000 -4.9365e+000 +4.8849e+000 -4.1073e+000
154 +4.233527824e+000 +4.233527824e+000 +1.648735278e+002 +1.648735278e+002 +7.6647e-001 +5.5597e+000 -5.3304e+000 +6.7687e+000 -5.0422e+000
213 +2.938440916e+000 +2.938440916e+000 +1.635784409e+002 +1.635784409e+002 +2.0616e+000 +7.9364e+000 -6.9384e+000 +6.7157e+000 -5.9234e+000
301 +2.331678480e+000 +2.331678480e+000 +1.629716785e+002 +1.629716785e+002 +2.6683e+000 +9.5862e+000 -8.6463e+000 +9.7263e+000 -5.8493e+000
360 +6.554905278e-001 +6.554905278e-001 +1.612954905e+002 +1.612954905e+002 +4.3445e+000 +8.2790e+000 -8.4761e+000 +8.2755e+000 -5.5928e+000
419 +0.000000000e+000 +0.000000000e+000 +1.606400000e+002 +1.606400000e+002 +5.1682e+000 +8.6286e+000 -1.0021e+001 +8.4104e+000 -5.6139e+000
% function evaluation | noise-free fitness - Fopt (-1.003600000000e+002) | best noise-free fitness - Fopt | measured fitness | best measured fitness | x1 | x2...
1 +1.728359433e+002 +1.728359433e+002 +7.247594331e+001 +7.247594331e+001 +6.8035e-001 +4.3436e+000 -2.6154e+000 +1.2491e+000 +4.1317e+000
2 +6.828515233e+001 +6.828515233e+001 -3.207484767e+001 -3.207484767e+001 +1.4843e+000 +3.1004e+000 +3.9627e+000 -2.0998e+000 -2.2193e+000
5 +5.407026718e+001 +5.407026718e+001 -4.628973282e+001 -4.628973282e+001 -8.2087e-001 +3.4540e-001 +4.5127e+000 -1.8903e+000 -2.8643e+000
23 +2.482805158e+001 +2.482805158e+001 -7.553194842e+001 -7.553194842e+001 +1.2931e+000 -4.8185e+000 +4.9095e+000 -4.6313e+000 -3.4147e+000
154 +2.420666193e+001 +2.420666193e+001 -7.615333807e+001 -7.615333807e+001 +1.3090e+000 -4.5840e+000 +4.7662e+000 -3.3202e+000 -4.3028e+000
156 +2.011439184e+001 +2.011439184e+001 -8.024560816e+001 -8.024560816e+001 +3.6607e+000 -5.8306e+000 +2.4785e+000 -4.3811e+000 -5.4291e+000
171 +1.897775670e+001 +1.897775670e+001 -8.138224330e+001 -8.138224330e+001 +3.4510e+000 -2.2727e+000 +3.2048e+000 -5.4449e+000 -5.3470e+000
184 +1.183862477e+001 +1.183862477e+001 -8.852137523e+001 -8.852137523e+001 +2.6984e+000 -3.7139e+000 +5.6350e+000 -4.6705e+000 -5.0649e+000
273 +9.486586976e+000 +9.486586976e+000 -9.087341302e+001 -9.087341302e+001 +4.4866e+000 -5.4586e+000 +5.2764e+000 -6.2532e+000 -6.5399e+000
303 +8.632987594e+000 +8.632987594e+000 -9.172701241e+001 -9.172701241e+001 +3.5942e+000 -7.4586e+000 +6.2470e+000 -4.9931e+000 -6.3539e+000
555 +6.135868546e+000 +6.135868546e+000 -9.422413145e+001 -9.422413145e+001 +7.9012e-001 -4.8056e+000 +5.6978e+000 -5.9079e+000 -5.2956e+000
762 +5.504466714e+000 +5.504466714e+000 -9.485553329e+001 -9.485553329e+001 +5.0447e-001 -5.7583e+000 +5.8943e+000 -5.7347e+000 -6.2917e+000
764 +5.384080118e+000 +5.384080118e+000 -9.497591988e+001 -9.497591988e+001 -3.8865e-001 -4.5655e+000 +5.7373e+000 -5.5126e+000 -5.5866e+000
765 +3.735819386e+000 +3.735819386e+000 -9.662418061e+001 -9.662418061e+001 -1.5349e+000 -4.9064e+000 +5.3278e+000 -6.6985e+000 -4.9896e+000
883 +2.542436016e+000 +2.542436016e+000 -9.781756398e+001 -9.781756398e+001 -2.4576e+000 -5.5818e+000 +5.4178e+000 -9.1012e+000 -5.0520e+000
1000 +1.935786428e+000 +1.935786428e+000 -9.842421357e+001 -9.842421357e+001 -3.0642e+000 -7.6001e+000 +5.3350e+000 -1.0529e+001 -5.7129e+000
1001 +6.624188143e-001 +6.624188143e-001 -9.969758119e+001 -9.969758119e+001 -4.3376e+000 -8.1595e+000 +5.5454e+000 -1.2152e+001 -5.6931e+000
1030 +4.234713815e-001 +4.234713815e-001 -9.993652862e+001 -9.993652862e+001 -4.7610e+000 -9.1427e+000 +4.9417e+000 -1.2529e+001 -5.6425e+000
1060 +0.000000000e+000 +0.000000000e+000 -1.003600000e+002 -1.003600000e+002 -5.8088e+000 -9.5931e+000 +5.1506e+000 -1.3940e+001 -5.6319e+000
